(15 ms) yes
{trace}
| ?- verifTresSimple(web_donnees,web_donnees).
      1    1  Call: verifTresSimple(web_donnees,web_donnees) ? 
      2    2  Call: verifPeriode(web_donnees,web_donnees) ? 
      3    3  Call: setof(_73,creneau(_73,_74,_75,web_donnees),_116) ? 
      4    4  Call: creneau(_73,_74,_75,web_donnees) ? 
      4    4  Exit: creneau(1,mar,am,web_donnees) ? 
      4    4  Redo: creneau(1,mar,am,web_donnees) ? 
      4    4  Fail: creneau(_73,_74,_75,web_donnees) ? 
      3    3  Exit: setof(_73,creneau(_73,mar,am,web_donnees),[1]) ? 
      4    3  Call: setof(_73,creneau(_73,_121,_122,web_donnees),_163) ? 
      5    4  Call: creneau(_73,_121,_122,web_donnees) ? 
      5    4  Exit: creneau(1,mar,am,web_donnees) ? 
      5    4  Redo: creneau(1,mar,am,web_donnees) ? 
      5    4  Fail: creneau(_73,_121,_122,web_donnees) ? 
      4    3  Exit: setof(_73,creneau(_73,mar,am,web_donnees),[1]) ? 
      5    3  Call: memberPeriode([1],[1]) ? 
      6    4  Call: member(1,[1]) ? 
      6    4  Exit: member(1,[1]) ? 
      7    4  Call: member(1,[1]) ? 
      7    4  Exit: member(1,[1]) ? 
      8    4  Call: fail ? 
      8    4  Fail: fail ? 
      5    3  Fail: memberPeriode([1],[1]) ? 
      2    2  Fail: verifPeriode(web_donnees,web_donnees) ? 
      2    2  Call: verifJour(web_donnees,web_donnees) ? 
      3    3  Call: creneau(_72,_114,_73,web_donnees) ? 
      3    3  Exit: creneau(1,mar,am,web_donnees) ? 
      4    3  Call: creneau(_101,_143,_102,web_donnees) ? 
      4    3  Exit: creneau(1,mar,am,web_donnees) ? 
      5    3  Call: mar\=mar ? 
      6    4  Call: mar=mar ? 
      6    4  Exit: mar=mar ? 
      5    3  Fail: mar\=mar ? 
      4    3  Redo: creneau(1,mar,am,web_donnees) ? 
      4    3  Fail: creneau(_101,_131,_102,web_donnees) ? 
      3    3  Redo: creneau(1,mar,am,web_donnees) ? 
      3    3  Fail: creneau(_72,_102,_73,web_donnees) ? 
      2    2  Fail: verifJour(web_donnees,web_donnees) ? 
      2    2  Call: verifDemijour(web_donnees,web_donnees) ? 
      3    3  Call: creneau(_72,_73,_114,web_donnees) ? 
      3    3  Exit: creneau(1,mar,am,web_donnees) ? 
      4    3  Call: creneau(_101,_102,_143,web_donnees) ? 
      4    3  Exit: creneau(1,mar,am,web_donnees) ? 
      5    3  Call: am\=am ? 
      6    4  Call: am=am ? 
      6    4  Exit: am=am ? 
      5    3  Fail: am\=am ? 
      4    3  Redo: creneau(1,mar,am,web_donnees) ? 
      4    3  Fail: creneau(_101,_102,_131,web_donnees) ? 
      3    3  Redo: creneau(1,mar,am,web_donnees) ? 
      3    3  Fail: creneau(_72,_73,_102,web_donnees) ? 
      2    2  Fail: verifDemijour(web_donnees,web_donnees) ? 
      1    1  Fail: verifTresSimple(web_donnees,web_donnees) ? 

(125 ms) no
{trace}
| ?- verifTresSimple(algorithmic_approach,compression).
      1    1  Call: verifTresSimple(algorithmic_approach,compression) ? 
      2    2  Call: verifPeriode(algorithmic_approach,compression) ? 
      3    3  Call: setof(_73,creneau(_73,_74,_75,algorithmic_approach),_116) ? 
      4    4  Call: creneau(_73,_74,_75,algorithmic_approach) ? 
      4    4  Exit: creneau(1,lun,am,algorithmic_approach) ? 
      4    4  Redo: creneau(1,lun,am,algorithmic_approach) ? 
      4    4  Fail: creneau(_73,_74,_75,algorithmic_approach) ? 
      3    3  Exit: setof(_73,creneau(_73,lun,am,algorithmic_approach),[1]) ? 
      4    3  Call: setof(_73,creneau(_73,_121,_122,compression),_163) ? 
      5    4  Call: creneau(_73,_121,_122,compression) ? 
      5    4  Exit: creneau(1,lun,pm,compression) ? 
      5    4  Redo: creneau(1,lun,pm,compression) ? 
      5    4  Fail: creneau(_73,_121,_122,compression) ? 
      4    3  Exit: setof(_73,creneau(_73,lun,pm,compression),[1]) ? 
      5    3  Call: memberPeriode([1],[1]) ? 
      6    4  Call: member(1,[1]) ? 
      6    4  Exit: member(1,[1]) ? 
      7    4  Call: member(1,[1]) ? 
      7    4  Exit: member(1,[1]) ? 
      8    4  Call: fail ? 
      8    4  Fail: fail ? 
      5    3  Fail: memberPeriode([1],[1]) ? 
      2    2  Fail: verifPeriode(algorithmic_approach,compression) ? 
      2    2  Call: verifJour(algorithmic_approach,compression) ? 
      3    3  Call: creneau(_72,_114,_73,algorithmic_approach) ? 
      3    3  Exit: creneau(1,lun,am,algorithmic_approach) ? 
      4    3  Call: creneau(_101,_143,_102,compression) ? 
      4    3  Exit: creneau(1,lun,pm,compression) ? 
      5    3  Call: lun\=lun ? 
      6    4  Call: lun=lun ? 
      6    4  Exit: lun=lun ? 
      5    3  Fail: lun\=lun ? 
      4    3  Redo: creneau(1,lun,pm,compression) ? 
      4    3  Fail: creneau(_101,_131,_102,compression) ? 
      3    3  Redo: creneau(1,lun,am,algorithmic_approach) ? 
      3    3  Fail: creneau(_72,_102,_73,algorithmic_approach) ? 
      2    2  Fail: verifJour(algorithmic_approach,compression) ? 
      2    2  Call: verifDemijour(algorithmic_approach,compression) ? 
      3    3  Call: creneau(_72,_73,_114,algorithmic_approach) ? 
      3    3  Exit: creneau(1,lun,am,algorithmic_approach) ? 
      4    3  Call: creneau(_101,_102,_143,compression) ? 
      4    3  Exit: creneau(1,lun,pm,compression) ? 
      5    3  Call: am\=pm ? 
      6    4  Call: am=pm ? 
      6    4  Fail: am=pm ? 
      5    3  Exit: am\=pm ? 
      2    2  Exit: verifDemijour(algorithmic_approach,compression) ? 
      1    1  Exit: verifTresSimple(algorithmic_approach,compression) ? 